{"href": "https://api.spotify.com/v1/users/1167733182/playlists?offset=0&limit=20", "items": [{"collaborative": false, "description": "Take a world tour on the club floor. \nCover: DJ Swisha", "external_urls": {"spotify": "https://open.spotify.com/playlist/37i9dQZF1DWVXBHEDDpqLs"}, "href": "https://api.spotify.com/v1/playlists/37i9dQZF1DWVXBHEDDpqLs", "id": "37i9dQZF1DWVXBHEDDpqLs", "images": [{"height": null, "url": "https://i.scdn.co/image/ab67706f00000003202237d8d14211d88a99eb83", "width": null}], "name": "Global Club Music", "owner": {"display_name": "Spotify", "external_urls": {"spotify": "https://open.spotify.com/user/spotify"}, "href": "https://api.spotify.com/v1/users/spotify", "id": "spotify", "type": "user", "uri": "spotify:user:spotify"}, "primary_color": null, "public": false, "snapshot_id": "MTY3MDg4Mzg3MCwwMDAwMDAwMDQ1ZTU5M2QyNzcwOTU0YjZlMzJhNjM4ZmIxODRhOTdh", "tracks": {"href": "https://api.spotify.com/v1/playlists/37i9dQZF1DWVXBHEDDpqLs/tracks", "total": 100}, "type": "playlist", "uri": "spotify:playlist:37i9dQZF1DWVXBHEDDpqLs"}, {"collaborative": false, "description": "Curated by occult.agency. Music by Charlie Sparks, Franky-B, Wallis, BXTR and many more. Everything hard, acid, industrial, underground, EBM and more. Updated weekly.                                                                  contact@obscuurrecords.com", "external_urls": {"spotify": "https://open.spotify.com/playlist/24jNUoWtGiqxe9bwuUxiIJ"}, "href": "https://api.spotify.com/v1/playlists/24jNUoWtGiqxe9bwuUxiIJ", "id": "24jNUoWtGiqxe9bwuUxiIJ", "images": [{"height": null, "url": "https://i.scdn.co/image/ab67706c0000bebb5d8fa47fef9405feeea748de", "width": null}], "name": "HARD TECHNO & RAVE 2023 ", "owner": {"display_name": "Occult Spotify", "external_urls": {"spotify": "https://open.spotify.com/user/tq0narmz09ipioz40o4udogcw"}, "href": "https://api.spotify.com/v1/users/tq0narmz09ipioz40o4udogcw", "id": "tq0narmz09ipioz40o4udogcw", "type": "user", "uri": "spotify:user:tq0narmz09ipioz40o4udogcw"}, "primary_color": null, "public": true, "snapshot_id": "MjMwLDBhODBmNzU1NzBmNTYzMDk1NTEzODlmYTAyZWZjZTFjMDE5YzljMDE=", "tracks": {"href": "https://api.spotify.com/v1/playlists/24jNUoWtGiqxe9bwuUxiIJ/tracks", "total": 180}, "type": "playlist", "uri": "spotify:playlist:24jNUoWtGiqxe9bwuUxiIJ"}, {"collaborative": false, "description": "", "external_urls": {"spotify": "https://open.spotify.com/playlist/33ArHqt9WCwpVcM4H4tw6V"}, "href": "https://api.spotify.com/v1/playlists/33ArHqt9WCwpVcM4H4tw6V", "id": "33ArHqt9WCwpVcM4H4tw6V", "images": [{"height": 640, "url": "https://i.scdn.co/image/ab67616d0000b273505d8df9c90faf313a9127ca", "width": 640}], "name": "Haunted Mound Reapers", "owner": {"display_name": "Micha\u0142 Wilk", "external_urls": {"spotify": "https://open.spotify.com/user/1167733182"}, "href": "https://api.spotify.com/v1/users/1167733182", "id": "1167733182", "type": "user", "uri": "spotify:user:1167733182"}, "primary_color": null, "public": true, "snapshot_id": "Nyw4YTFjYWZlM2Y4MzZlYjI5Nzc3YjAzNmRiNDRhMmY5MDQ4MmI3ZTY5", "tracks": {"href": "https://api.spotify.com/v1/playlists/33ArHqt9WCwpVcM4H4tw6V/tracks", "total": 6}, "type": "playlist", "uri": "spotify:playlist:33ArHqt9WCwpVcM4H4tw6V"}, {"collaborative": false, "description": "", "external_urls": {"spotify": "https://open.spotify.com/playlist/37i9dQZF1E8LUEkieWjlWC"}, "href": "https://api.spotify.com/v1/playlists/37i9dQZF1E8LUEkieWjlWC", "id": "37i9dQZF1E8LUEkieWjlWC", "images": [{"height": null, "url": "https://seeded-session-images.scdn.co/v1/img/track/2kRFrWaLWiKq48YYVdGcm8/pl", "width": null}], "name": "Everything In Its Right Place \u2013 radio", "owner": {"display_name": "Spotify", "external_urls": {"spotify": "https://open.spotify.com/user/spotify"}, "href": "https://api.spotify.com/v1/users/spotify", "id": "spotify", "type": "user", "uri": "spotify:user:spotify"}, "primary_color": null, "public": false, "snapshot_id": "MTY3MzY0NjM1NSwwMDAwMDAwMDA0NDVmMDYxMTVmZDY0ODBmZDRiZDMyMjg5YzdlNzU2", "tracks": {"href": "https://api.spotify.com/v1/playlists/37i9dQZF1E8LUEkieWjlWC/tracks", "total": 50}, "type": "playlist", "uri": "spotify:playlist:37i9dQZF1E8LUEkieWjlWC"}, {"collaborative": false, "description": "", "external_urls": {"spotify": "https://open.spotify.com/playlist/3G2UMoBU0hy8XrgsmzB6uJ"}, "href": "https://api.spotify.com/v1/playlists/3G2UMoBU0hy8XrgsmzB6uJ", "id": "3G2UMoBU0hy8XrgsmzB6uJ", "images": [{"height": 640, "url": "https://mosaic.scdn.co/640/ab67616d0000b27309e4ac9a68d9ea5ef0ad9b05ab67616d0000b273626ad9bb7d5f84c59652b161ab67616d0000b2736c7112082b63beefffe40151ab67616d0000b273de3c04b5fc750b68899b20a9", "width": 640}, {"height": 300, "url": "https://mosaic.scdn.co/300/ab67616d0000b27309e4ac9a68d9ea5ef0ad9b05ab67616d0000b273626ad9bb7d5f84c59652b161ab67616d0000b2736c7112082b63beefffe40151ab67616d0000b273de3c04b5fc750b68899b20a9", "width": 300}, {"height": 60, "url": "https://mosaic.scdn.co/60/ab67616d0000b27309e4ac9a68d9ea5ef0ad9b05ab67616d0000b273626ad9bb7d5f84c59652b161ab67616d0000b2736c7112082b63beefffe40151ab67616d0000b273de3c04b5fc750b68899b20a9", "width": 60}], "name": "lookin through an empty mess", "owner": {"display_name": "Micha\u0142 Wilk", "external_urls": {"spotify": "https://open.spotify.com/user/1167733182"}, "href": "https://api.spotify.com/v1/users/1167733182", "id": "1167733182", "type": "user", "uri": "spotify:user:1167733182"}, "primary_color": null, "public": false, "snapshot_id": "ODEsOWQ5OWE4MTYxZjYyOTc4ZGIwZDVlZWEwMzZiZTZlNTRmNmJlMTlmYw==", "tracks": {"href": "https://api.spotify.com/v1/playlists/3G2UMoBU0hy8XrgsmzB6uJ/tracks", "total": 78}, "type": "playlist", "uri": "spotify:playlist:3G2UMoBU0hy8XrgsmzB6uJ"}, {"collaborative": false, "description": "", "external_urls": {"spotify": "https://open.spotify.com/playlist/26vFkWgQy3z8NKtFQ8sljf"}, "href": "https://api.spotify.com/v1/playlists/26vFkWgQy3z8NKtFQ8sljf", "id": "26vFkWgQy3z8NKtFQ8sljf", "images": [{"height": 640, "url": "https://mosaic.scdn.co/640/ab67616d0000b273464fdc6a873412a1a37d3e90ab67616d0000b2738a8371bfea737c5b41fc6734ab67616d0000b273ddaf392f9b99bb1dbc932260ab67616d0000b273fa6b6933c98b02045d4ed1c0", "width": 640}, {"height": 300, "url": "https://mosaic.scdn.co/300/ab67616d0000b273464fdc6a873412a1a37d3e90ab67616d0000b2738a8371bfea737c5b41fc6734ab67616d0000b273ddaf392f9b99bb1dbc932260ab67616d0000b273fa6b6933c98b02045d4ed1c0", "width": 300}, {"height": 60, "url": "https://mosaic.scdn.co/60/ab67616d0000b273464fdc6a873412a1a37d3e90ab67616d0000b2738a8371bfea737c5b41fc6734ab67616d0000b273ddaf392f9b99bb1dbc932260ab67616d0000b273fa6b6933c98b02045d4ed1c0", "width": 60}], "name": "MashTechno", "owner": {"display_name": "Micha\u0142 Wilk", "external_urls": {"spotify": "https://open.spotify.com/user/1167733182"}, "href": "https://api.spotify.com/v1/users/1167733182", "id": "1167733182", "type": "user", "uri": "spotify:user:1167733182"}, "primary_color": null, "public": false, "snapshot_id": "MTUzLDk4ZTczMGE4YTVmMWZkNGIxMzFhNmU0YWRkNzcwZDMwMjdiN2JkMDc=", "tracks": {"href": "https://api.spotify.com/v1/playlists/26vFkWgQy3z8NKtFQ8sljf/tracks", "total": 146}, "type": "playlist", "uri": "spotify:playlist:26vFkWgQy3z8NKtFQ8sljf"}, {"collaborative": false, "description": "Some top songs from the past 10 years, in a playlist tuned for your taste.", "external_urls": {"spotify": "https://open.spotify.com/playlist/37i9dQZF1DWTpv9X85KmGq"}, "href": "https://api.spotify.com/v1/playlists/37i9dQZF1DWTpv9X85KmGq", "id": "37i9dQZF1DWTpv9X85KmGq", "images": [{"height": null, "url": "https://i.scdn.co/image/ab67706f00000003697cb51a00968f3749a0ff6d", "width": null}], "name": "Best of the Decade For You", "owner": {"display_name": "Spotify", "external_urls": {"spotify": "https://open.spotify.com/user/spotify"}, "href": "https://api.spotify.com/v1/users/spotify", "id": "spotify", "type": "user", "uri": "spotify:user:spotify"}, "primary_color": null, "public": false, "snapshot_id": "MTY0MjUxMTgwNiwwMDAwMDAwMGQ5ZTU3NzY1YjZjNGVjYTE2ZjhkMGU2NTM1NTA2OTdh", "tracks": {"href": "https://api.spotify.com/v1/playlists/37i9dQZF1DWTpv9X85KmGq/tracks", "total": 100}, "type": "playlist", "uri": "spotify:playlist:37i9dQZF1DWTpv9X85KmGq"}, {"collaborative": false, "description": "moods", "external_urls": {"spotify": "https://open.spotify.com/playlist/6GLYPquNVsDwSicuyhU60G"}, "href": "https://api.spotify.com/v1/playlists/6GLYPquNVsDwSicuyhU60G", "id": "6GLYPquNVsDwSicuyhU60G", "images": [{"height": null, "url": "https://i.scdn.co/image/ab67706c0000bebbefcfd1030e842862d02d1152", "width": null}], "name": "DJ MELL G SELECTION: \ud835\ude15\ud835\ude16\ud835\ude1b \ud835\ude11\ud835\ude1c\ud835\ude1a\ud835\ude1b \ud835\ude0c\ud835\ude13\ud835\ude0c\ud835\ude0a\ud835\ude1b\ud835\ude19\ud835\ude16\ud835\ude15\ud835\ude10\ud835\ude0a \ud835\ude14\ud835\ude1c\ud835\ude1a\ud835\ude10\ud835\ude0a ", "owner": {"display_name": "MELL", "external_urls": {"spotify": "https://open.spotify.com/user/1165855816"}, "href": "https://api.spotify.com/v1/users/1165855816", "id": "1165855816", "type": "user", "uri": "spotify:user:1165855816"}, "primary_color": null, "public": false, "snapshot_id": "MzMzLDc1ODRkYWRhMzMzZmZiYzUwZDQ3NmI5NDNjMGM3NTZjODZlYWU0NGE=", "tracks": {"href": "https://api.spotify.com/v1/playlists/6GLYPquNVsDwSicuyhU60G/tracks", "total": 56}, "type": "playlist", "uri": "spotify:playlist:6GLYPquNVsDwSicuyhU60G"}, {"collaborative": false, "description": "The songs you loved most this year, all wrapped up.", "external_urls": {"spotify": "https://open.spotify.com/playlist/37i9dQZF1E9NN5cbLBBVAT"}, "href": "https://api.spotify.com/v1/playlists/37i9dQZF1E9NN5cbLBBVAT", "id": "37i9dQZF1E9NN5cbLBBVAT", "images": [{"height": null, "url": "https://lineup-images.scdn.co/your-top-songs-2017_LARGE-en.jpg", "width": null}], "name": "Your Top Songs 2017", "owner": {"display_name": "Spotify", "external_urls": {"spotify": "https://open.spotify.com/user/spotify"}, "href": "https://api.spotify.com/v1/users/spotify", "id": "spotify", "type": "user", "uri": "spotify:user:spotify"}, "primary_color": null, "public": false, "snapshot_id": "MjUxODI4MTIsMDAwMDAwMDA5M2M1Yjk0MDlkNjNiZjY1NjgxYTMxZjIzYTM5NWY1ZA==", "tracks": {"href": "https://api.spotify.com/v1/playlists/37i9dQZF1E9NN5cbLBBVAT/tracks", "total": 100}, "type": "playlist", "uri": "spotify:playlist:37i9dQZF1E9NN5cbLBBVAT"}, {"collaborative": false, "description": "We collected all the songs you loved the most this year, wrapped them up, and are serving them back in this beautiful little playlist.", "external_urls": {"spotify": "https://open.spotify.com/playlist/37i9dQZF1Cz2YEHaPQKM9u"}, "href": "https://api.spotify.com/v1/playlists/37i9dQZF1Cz2YEHaPQKM9u", "id": "37i9dQZF1Cz2YEHaPQKM9u", "images": [{"height": null, "url": "https://lineup-images.scdn.co/your-top-songs-2016_LARGE-en.jpg", "width": null}], "name": "Your Top Songs 2016", "owner": {"display_name": "Spotify", "external_urls": {"spotify": "https://open.spotify.com/user/spotify"}, "href": "https://api.spotify.com/v1/users/spotify", "id": "spotify", "type": "user", "uri": "spotify:user:spotify"}, "primary_color": null, "public": false, "snapshot_id": "MjQ2Nzg3MjAsMDAwMDAwMDA4OTViYzE5ZTQ5NzMzMGJhMWJjY2IxYWU0MDY2N2Q3Yg==", "tracks": {"href": "https://api.spotify.com/v1/playlists/37i9dQZF1Cz2YEHaPQKM9u/tracks", "total": 101}, "type": "playlist", "uri": "spotify:playlist:37i9dQZF1Cz2YEHaPQKM9u"}, {"collaborative": false, "description": "", "external_urls": {"spotify": "https://open.spotify.com/playlist/1uvZrCi9dditH6VNrUZptM"}, "href": "https://api.spotify.com/v1/playlists/1uvZrCi9dditH6VNrUZptM", "id": "1uvZrCi9dditH6VNrUZptM", "images": [{"height": 640, "url": "https://mosaic.scdn.co/640/ab67616d0000b2739e9c442c86d580c9c3bd4ceeab67616d0000b273b06a2fbebb42ed0f5f7af1f2ab67616d0000b273be224eac4b5cca7bb9ed8229ab67616d0000b273e05c4089e6c6eb7131395ff9", "width": 640}, {"height": 300, "url": "https://mosaic.scdn.co/300/ab67616d0000b2739e9c442c86d580c9c3bd4ceeab67616d0000b273b06a2fbebb42ed0f5f7af1f2ab67616d0000b273be224eac4b5cca7bb9ed8229ab67616d0000b273e05c4089e6c6eb7131395ff9", "width": 300}, {"height": 60, "url": "https://mosaic.scdn.co/60/ab67616d0000b2739e9c442c86d580c9c3bd4ceeab67616d0000b273b06a2fbebb42ed0f5f7af1f2ab67616d0000b273be224eac4b5cca7bb9ed8229ab67616d0000b273e05c4089e6c6eb7131395ff9", "width": 60}], "name": "Traaa", "owner": {"display_name": "Micha\u0142 Wilk", "external_urls": {"spotify": "https://open.spotify.com/user/1167733182"}, "href": "https://api.spotify.com/v1/users/1167733182", "id": "1167733182", "type": "user", "uri": "spotify:user:1167733182"}, "primary_color": null, "public": false, "snapshot_id": "NDkwLDllMjhmMGQyNmY0ZTQ4N2E3MzU5MzFiYzBjNWVlZjZkMjY5NThmYTc=", "tracks": {"href": "https://api.spotify.com/v1/playlists/1uvZrCi9dditH6VNrUZptM/tracks", "total": 259}, "type": "playlist", "uri": "spotify:playlist:1uvZrCi9dditH6VNrUZptM"}, {"collaborative": false, "description": "The songs you loved most this year, all wrapped up.", "external_urls": {"spotify": "https://open.spotify.com/playlist/37i9dQZF1EjvEnnt9tECKn"}, "href": "https://api.spotify.com/v1/playlists/37i9dQZF1EjvEnnt9tECKn", "id": "37i9dQZF1EjvEnnt9tECKn", "images": [{"height": null, "url": "https://lineup-images.scdn.co/your-top-songs-2018_LARGE-en.jpg", "width": null}], "name": "Your Top Songs 2018", "owner": {"display_name": "Spotify", "external_urls": {"spotify": "https://open.spotify.com/user/spotify"}, "href": "https://api.spotify.com/v1/users/spotify", "id": "spotify", "type": "user", "uri": "spotify:user:spotify"}, "primary_color": null, "public": false, "snapshot_id": "MjU3NjA4NDgsMDAwMDAwMDAzZjMwNjcyNjE2NDk4Nzc1NTUxMWYyOGNhYjQzY2M3Ng==", "tracks": {"href": "https://api.spotify.com/v1/playlists/37i9dQZF1EjvEnnt9tECKn/tracks", "total": 100}, "type": "playlist", "uri": "spotify:playlist:37i9dQZF1EjvEnnt9tECKn"}, {"collaborative": false, "description": "Spotify Wrapped presents the songs that you loved most this year.", "external_urls": {"spotify": "https://open.spotify.com/playlist/37i9dQZF1F0sijgNaJdgit"}, "href": "https://api.spotify.com/v1/playlists/37i9dQZF1F0sijgNaJdgit", "id": "37i9dQZF1F0sijgNaJdgit", "images": [{"height": null, "url": "https://wrapped-images.spotifycdn.com/image/yts-2022/large/your-top-songs-2022_large_en.jpg", "width": null}], "name": "Your Top Songs 2022", "owner": {"display_name": "Spotify", "external_urls": {"spotify": "https://open.spotify.com/user/spotify"}, "href": "https://api.spotify.com/v1/users/spotify", "id": "spotify", "type": "user", "uri": "spotify:user:spotify"}, "primary_color": null, "public": false, "snapshot_id": "MTY2OTkwODk2MiwwMDAwMDAwMDBiNjFiY2QxNTNkMTdkZjM2MDAwYmUyNjE3M2RmODE5", "tracks": {"href": "https://api.spotify.com/v1/playlists/37i9dQZF1F0sijgNaJdgit/tracks", "total": 101}, "type": "playlist", "uri": "spotify:playlist:37i9dQZF1F0sijgNaJdgit"}, {"collaborative": false, "description": "", "external_urls": {"spotify": "https://open.spotify.com/playlist/67FsTGfLkFfXzfC7MgNVzM"}, "href": "https://api.spotify.com/v1/playlists/67FsTGfLkFfXzfC7MgNVzM", "id": "67FsTGfLkFfXzfC7MgNVzM", "images": [{"height": 640, "url": "https://mosaic.scdn.co/640/ab67616d0000b2730ca446ea270edb01238cb969ab67616d0000b2733ca80a706877540d7529c75aab67616d0000b273a1a30cf13d406a0d5d33ae53ab67616d0000b273c55161478b98e5313a83fc11", "width": 640}, {"height": 300, "url": "https://mosaic.scdn.co/300/ab67616d0000b2730ca446ea270edb01238cb969ab67616d0000b2733ca80a706877540d7529c75aab67616d0000b273a1a30cf13d406a0d5d33ae53ab67616d0000b273c55161478b98e5313a83fc11", "width": 300}, {"height": 60, "url": "https://mosaic.scdn.co/60/ab67616d0000b2730ca446ea270edb01238cb969ab67616d0000b2733ca80a706877540d7529c75aab67616d0000b273a1a30cf13d406a0d5d33ae53ab67616d0000b273c55161478b98e5313a83fc11", "width": 60}], "name": "\u2764\ufe0f", "owner": {"display_name": "Micha\u0142 Wilk", "external_urls": {"spotify": "https://open.spotify.com/user/1167733182"}, "href": "https://api.spotify.com/v1/users/1167733182", "id": "1167733182", "type": "user", "uri": "spotify:user:1167733182"}, "primary_color": null, "public": true, "snapshot_id": "MTQ1LDgyMTExMTlhYjNjMzcxMzBmMWIwNzk4ZTQ3NDY0ZmE0YzMyNWUwZDg=", "tracks": {"href": "https://api.spotify.com/v1/playlists/67FsTGfLkFfXzfC7MgNVzM/tracks", "total": 111}, "type": "playlist", "uri": "spotify:playlist:67FsTGfLkFfXzfC7MgNVzM"}, {"collaborative": false, "description": "", "external_urls": {"spotify": "https://open.spotify.com/playlist/5hQzyr82yywouhYjEh3qRI"}, "href": "https://api.spotify.com/v1/playlists/5hQzyr82yywouhYjEh3qRI", "id": "5hQzyr82yywouhYjEh3qRI", "images": [{"height": 640, "url": "https://mosaic.scdn.co/640/ab67616d0000b2731b5f2557a7fe884d0e3d8b2aab67616d0000b27350df472089189637cd492f1dab67616d0000b273888bfa1481afdf5a71e3adc8ab67616d0000b273d2f230807131b7803f2cc40c", "width": 640}, {"height": 300, "url": "https://mosaic.scdn.co/300/ab67616d0000b2731b5f2557a7fe884d0e3d8b2aab67616d0000b27350df472089189637cd492f1dab67616d0000b273888bfa1481afdf5a71e3adc8ab67616d0000b273d2f230807131b7803f2cc40c", "width": 300}, {"height": 60, "url": "https://mosaic.scdn.co/60/ab67616d0000b2731b5f2557a7fe884d0e3d8b2aab67616d0000b27350df472089189637cd492f1dab67616d0000b273888bfa1481afdf5a71e3adc8ab67616d0000b273d2f230807131b7803f2cc40c", "width": 60}], "name": "Trance", "owner": {"display_name": "Micha\u0142 Wilk", "external_urls": {"spotify": "https://open.spotify.com/user/1167733182"}, "href": "https://api.spotify.com/v1/users/1167733182", "id": "1167733182", "type": "user", "uri": "spotify:user:1167733182"}, "primary_color": null, "public": false, "snapshot_id": "NTYsZWU0Njg0ODU4ZmJhODdkZjgxNjA2ZjM0OWFmNzc4MjVlN2FlZTg4NA==", "tracks": {"href": "https://api.spotify.com/v1/playlists/5hQzyr82yywouhYjEh3qRI/tracks", "total": 51}, "type": "playlist", "uri": "spotify:playlist:5hQzyr82yywouhYjEh3qRI"}, {"collaborative": false, "description": "", "external_urls": {"spotify": "https://open.spotify.com/playlist/1GwX3Dldc94OkuTNEkvZjo"}, "href": "https://api.spotify.com/v1/playlists/1GwX3Dldc94OkuTNEkvZjo", "id": "1GwX3Dldc94OkuTNEkvZjo", "images": [{"height": 640, "url": "https://mosaic.scdn.co/640/ab67616d0000b2733efe498b890a525f60c383a5ab67616d0000b273929596d53c36cbc1a78e20a1ab67616d0000b273b001658f289eaea58f4cc2e1ab67616d0000b273bad53822060f5ef8982880e1", "width": 640}, {"height": 300, "url": "https://mosaic.scdn.co/300/ab67616d0000b2733efe498b890a525f60c383a5ab67616d0000b273929596d53c36cbc1a78e20a1ab67616d0000b273b001658f289eaea58f4cc2e1ab67616d0000b273bad53822060f5ef8982880e1", "width": 300}, {"height": 60, "url": "https://mosaic.scdn.co/60/ab67616d0000b2733efe498b890a525f60c383a5ab67616d0000b273929596d53c36cbc1a78e20a1ab67616d0000b273b001658f289eaea58f4cc2e1ab67616d0000b273bad53822060f5ef8982880e1", "width": 60}], "name": "Electro ghetto techno trance", "owner": {"display_name": "Micha\u0142 Wilk", "external_urls": {"spotify": "https://open.spotify.com/user/1167733182"}, "href": "https://api.spotify.com/v1/users/1167733182", "id": "1167733182", "type": "user", "uri": "spotify:user:1167733182"}, "primary_color": null, "public": false, "snapshot_id": "Njg5LDcxNWU5ZTU4NWY2NzYyY2UxZDY0YmZmNDIxZGQ2YjhiY2IxY2ZkYjU=", "tracks": {"href": "https://api.spotify.com/v1/playlists/1GwX3Dldc94OkuTNEkvZjo/tracks", "total": 650}, "type": "playlist", "uri": "spotify:playlist:1GwX3Dldc94OkuTNEkvZjo"}, {"collaborative": false, "description": "", "external_urls": {"spotify": "https://open.spotify.com/playlist/7fAJlQX93zGPldx8v7EWD8"}, "href": "https://api.spotify.com/v1/playlists/7fAJlQX93zGPldx8v7EWD8", "id": "7fAJlQX93zGPldx8v7EWD8", "images": [{"height": 640, "url": "https://mosaic.scdn.co/640/ab67616d0000b2738e23140a68d51d29933e02bcab67616d0000b273c1f7fd086e73323a89065220ab67616d0000b273c55161478b98e5313a83fc11ab67616d0000b273d6557b2c71a7bf464cfdde12", "width": 640}, {"height": 300, "url": "https://mosaic.scdn.co/300/ab67616d0000b2738e23140a68d51d29933e02bcab67616d0000b273c1f7fd086e73323a89065220ab67616d0000b273c55161478b98e5313a83fc11ab67616d0000b273d6557b2c71a7bf464cfdde12", "width": 300}, {"height": 60, "url": "https://mosaic.scdn.co/60/ab67616d0000b2738e23140a68d51d29933e02bcab67616d0000b273c1f7fd086e73323a89065220ab67616d0000b273c55161478b98e5313a83fc11ab67616d0000b273d6557b2c71a7bf464cfdde12", "width": 60}], "name": "01_music", "owner": {"display_name": "Micha\u0142 Wilk", "external_urls": {"spotify": "https://open.spotify.com/user/1167733182"}, "href": "https://api.spotify.com/v1/users/1167733182", "id": "1167733182", "type": "user", "uri": "spotify:user:1167733182"}, "primary_color": null, "public": true, "snapshot_id": "ODksZmQ4ZDE4M2ZiN2NmZTBjNWI2YzY0MGYzOTMyNmI3Yjc4MGEzYTU5Mg==", "tracks": {"href": "https://api.spotify.com/v1/playlists/7fAJlQX93zGPldx8v7EWD8/tracks", "total": 79}, "type": "playlist", "uri": "spotify:playlist:7fAJlQX93zGPldx8v7EWD8"}, {"collaborative": false, "description": "<a href=spotify:playlist:37i9dQZF1EIYPCiwYalk6P>Burial</a>, <a href=spotify:playlist:37i9dQZF1EIVFWbAj76QAW>ATB</a>, <a href=spotify:playlist:37i9dQZF1EIYWwGqC3GC7o>Linkin Park</a> and more", "external_urls": {"spotify": "https://open.spotify.com/playlist/37i9dQZF1EQn4jwNIohw50"}, "href": "https://api.spotify.com/v1/playlists/37i9dQZF1EQn4jwNIohw50", "id": "37i9dQZF1EQn4jwNIohw50", "images": [{"height": null, "url": "https://seed-mix-image.spotifycdn.com/v6/img/two_thousands/0uCCBpmg6MrPb1KY2msceF/en/large", "width": null}], "name": "2000s Mix", "owner": {"display_name": "Spotify", "external_urls": {"spotify": "https://open.spotify.com/user/spotify"}, "href": "https://api.spotify.com/v1/users/spotify", "id": "spotify", "type": "user", "uri": "spotify:user:spotify"}, "primary_color": null, "public": false, "snapshot_id": "MTY3MzU4OTYwMCwwMDAwMDAwMGNhZDFhMjNkMjc0NTRiNDA1MGFiZDk4OWJkMWNkOGI2", "tracks": {"href": "https://api.spotify.com/v1/playlists/37i9dQZF1EQn4jwNIohw50/tracks", "total": 50}, "type": "playlist", "uri": "spotify:playlist:37i9dQZF1EQn4jwNIohw50"}, {"collaborative": false, "description": "", "external_urls": {"spotify": "https://open.spotify.com/playlist/3GPmyC0tw4I5fd7qluDNWB"}, "href": "https://api.spotify.com/v1/playlists/3GPmyC0tw4I5fd7qluDNWB", "id": "3GPmyC0tw4I5fd7qluDNWB", "images": [{"height": 640, "url": "https://mosaic.scdn.co/640/ab67616d0000b27309023e8ff20f44a75e442123ab67616d0000b2732cd89a98e8e2d732a9e07da8ab67616d0000b2733fbfffbd10312907bf96457fab67616d0000b273c81f592217e8b8b1222e3d43", "width": 640}, {"height": 300, "url": "https://mosaic.scdn.co/300/ab67616d0000b27309023e8ff20f44a75e442123ab67616d0000b2732cd89a98e8e2d732a9e07da8ab67616d0000b2733fbfffbd10312907bf96457fab67616d0000b273c81f592217e8b8b1222e3d43", "width": 300}, {"height": 60, "url": "https://mosaic.scdn.co/60/ab67616d0000b27309023e8ff20f44a75e442123ab67616d0000b2732cd89a98e8e2d732a9e07da8ab67616d0000b2733fbfffbd10312907bf96457fab67616d0000b273c81f592217e8b8b1222e3d43", "width": 60}], "name": "Sze\u015bdziesiona", "owner": {"display_name": "Micha\u0142 Wilk", "external_urls": {"spotify": "https://open.spotify.com/user/1167733182"}, "href": "https://api.spotify.com/v1/users/1167733182", "id": "1167733182", "type": "user", "uri": "spotify:user:1167733182"}, "primary_color": null, "public": false, "snapshot_id": "MjEsZjJjYWIyZmQ0YTVlZmY0ODczODNhNjI0NTM3N2M2YTcwZjNmN2EzNg==", "tracks": {"href": "https://api.spotify.com/v1/playlists/3GPmyC0tw4I5fd7qluDNWB/tracks", "total": 20}, "type": "playlist", "uri": "spotify:playlist:3GPmyC0tw4I5fd7qluDNWB"}, {"collaborative": false, "description": "", "external_urls": {"spotify": "https://open.spotify.com/playlist/5n638CaeXVTeN5VsuppvhZ"}, "href": "https://api.spotify.com/v1/playlists/5n638CaeXVTeN5VsuppvhZ", "id": "5n638CaeXVTeN5VsuppvhZ", "images": [{"height": 640, "url": "https://mosaic.scdn.co/640/ab67616d0000b2730c6694d88d8485a850522946ab67616d0000b273614a077abe64d51378f0e50dab67616d0000b27367eca1de921ce9c1f80eac31ab67616d0000b273929fe4d0ac924189984516fa", "width": 640}, {"height": 300, "url": "https://mosaic.scdn.co/300/ab67616d0000b2730c6694d88d8485a850522946ab67616d0000b273614a077abe64d51378f0e50dab67616d0000b27367eca1de921ce9c1f80eac31ab67616d0000b273929fe4d0ac924189984516fa", "width": 300}, {"height": 60, "url": "https://mosaic.scdn.co/60/ab67616d0000b2730c6694d88d8485a850522946ab67616d0000b273614a077abe64d51378f0e50dab67616d0000b27367eca1de921ce9c1f80eac31ab67616d0000b273929fe4d0ac924189984516fa", "width": 60}], "name": "HardBoing", "owner": {"display_name": "Micha\u0142 Wilk", "external_urls": {"spotify": "https://open.spotify.com/user/1167733182"}, "href": "https://api.spotify.com/v1/users/1167733182", "id": "1167733182", "type": "user", "uri": "spotify:user:1167733182"}, "primary_color": null, "public": true, "snapshot_id": "MTcsZjdiNzczZjZiY2MwY2RlYmFkN2M4M2IzYzBkNjZmODIxMTcwYjYyNQ==", "tracks": {"href": "https://api.spotify.com/v1/playlists/5n638CaeXVTeN5VsuppvhZ/tracks", "total": 21}, "type": "playlist", "uri": "spotify:playlist:5n638CaeXVTeN5VsuppvhZ"}], "limit": 20, "next": "https://api.spotify.com/v1/users/1167733182/playlists?offset=20&limit=20", "offset": 0, "previous": null, "total": 46}